{
  "apps": [
    {
      "name": "rf-ui-web-manager",
      "script": "index.js",
      "merge_logs": true,
      "log_date_format": "YYYY-MM-DD HH:mm Z",
      "error_file": "logs//pm2//err.log",
      "out_file": "logs//pm2//out.log",
      "pid_file": "pids/node-rf-app.pid",
      "instances": 4,
      "max_memory_restart": "1000M",
      "watch": false,
      "exec_interpreter": "node",
      "exec_mode": "cluster",
      "node_args": [
        "--nouse-idle-notification",
        "--expose-gc",
        "--max_old_space_size=4000"
      ],
      "env": {
        "NODE_ENV": "development"
      },
      "env_development": {
        "NODE_ENV": "development"
      },
      "env_qa": {
        "NODE_ENV": "qa"
      },
      "env_uat": {
        "NODE_ENV": "uat"
      },
      "env_production": {
        "NODE_ENV": "production"
      }
    }
  ]
}